files_to_run_processor_on_hardware/dump.vcd
$date
Mon Dec 22 11:14:56 2025
$end
$version
Riviera-PRO Version 2023.04.112.8911
$end
$timescale
1 ps
$end

$scope module top_tb $end
$var reg 1 ! clk $end
$var reg 1 " rst $end

$scope module dut $end
$var wire 1 # clk $end
$var wire 1 $ rst $end
$var reg 32 % ALU_Result [31:0] $end
$var reg 32 & PC_in [31:0] $end
$var reg 32 ' PC_Out [31:0] $end
$var reg 32 ( Inst [31:0] $end
$var reg 32 ) dataW [31:0] $end
$var reg 32 * dataR1 [31:0] $end
$var reg 32 + dataR2 [31:0] $end
$var reg 32 , ALU_Inp1 [31:0] $end
$var reg 32 - ALU_Inp2 [31:0] $end
$var reg 32 . Imm_Value [31:0] $end
$var reg 32 / ALU_Out [31:0] $end
$var reg 32 0 DataB [31:0] $end
$var reg 32 1 PC_Plus_4 [31:0] $end
$var reg 32 2 DMem_Inp [31:0] $end
$var reg 1 3 BrEq $end
$var reg 1 4 BrLt $end
$var reg 1 5 IF_ID_Reg_Write_Enable $end
$var reg 1 6 PC_Write $end
$var reg 1 7 ID_EX_Mux_Sel $end
$var reg 1 8 fwd_DMem_MUX_Sel $end
$var reg 1 9 flush $end
$var reg 1 : Asel_Branch $end
$var reg 1 ; Bsel_Branch $end
$var reg 1 < PC_Sel_Branch $end
$var reg 3 = Imm_Sel [2:0] $end
$var reg 4 > ALUSel_Branch [3:0] $end
$var reg 2 ? Forward_A [1:0] $end
$var reg 2 @ Forward_B [1:0] $end
$var reg 64 A Fetch_Decode_Out [63:0] $end
$var reg 177 B Decode_Execute_In [176:0] $end
$var reg 177 C Decode_Execute_Out [176:0] $end
$var reg 130 D Execute_Mem_In [129:0] $end
$var reg 130 E Execute_Mem_Out [129:0] $end
$var reg 110 F Mem_WB_In [109:0] $end
$var reg 110 G Mem_WB_Out [109:0] $end
$var reg 32 H Mux_M1_Out [31:0] $end
$var reg 32 I Mux_M2_Out [31:0] $end
$var reg 4 J ctrl_ALUSel [3:0] $end
$var reg 3 K ctrl_RW_Bytes [2:0] $end
$var reg 2 L ctrl_WB_Sel [1:0] $end
$var reg 2 M ctrl_LdSt [1:0] $end
$var reg 1 N ctrl_RegEn $end
$var reg 1 O ctrl_PCSel $end
$var reg 1 P ctrl_BrUn $end
$var reg 1 Q ctrl_BSel $end
$var reg 1 R ctrl_ASel $end
$var reg 1 S ctrl_MemW $end

$scope module PC $end
$var wire 32 T PC_in [31:0] $end
$var wire 1 # clk $end
$var wire 1 $ rst $end
$var wire 1 U PC_Write $end
$var reg 32 V PC_Out [31:0] $end
$upscope $end


$scope module IMem $end
$var wire 32 W addr [31:0] $end
$var reg 32 X dataR [31:0] $end
$upscope $end


$scope module PC_Adder $end
$var wire 32 W PC_Out [31:0] $end
$var reg 32 Y PC_Plus_4 [31:0] $end
$upscope $end


$scope module MUX_PC $end
$var wire 32 Z inp0 [31:0] $end
$var wire 32 [ inp1 [31:0] $end
$var wire 1 \ sel $end
$var reg 32 ] PC_in [31:0] $end
$upscope $end


$scope module reg_Fetch $end
$var wire 1 # clk $end
$var wire 1 $ rst $end
$var wire 1 ^ Write_Enable $end
$var wire 1 _ flush $end
$var wire 64 ` inp [63:0] $end
$var reg 64 a out [63:0] $end
$var parameter 32 b Width [31:0] $end
$upscope $end


$scope module Hazard_Detect $end
$var reg 1 c clk $end
$var reg 7 d OP_Code_IF_ID [6:0] $end
$var reg 7 e OP_Code_ID_EX [6:0] $end
$var reg 5 f ID_EX_Rd [4:0] $end
$var reg 5 g IF_ID_Rs1 [4:0] $end
$var reg 5 h IF_ID_Rs2 [4:0] $end
$var reg 1 i IF_ID_Write $end
$var reg 1 j PC_Write $end
$var reg 1 k Mux_i $end
$upscope $end


$scope module RF $end
$var wire 1 # clk $end
$var wire 1 $ rst $end
$var wire 1 l Register_E $end
$var wire 5 m rsW [4:0] $end
$var wire 5 n rs1 [4:0] $end
$var wire 5 o rs2 [4:0] $end
$var wire 32 p dataW [31:0] $end
$var reg 32 q data1 [31:0] $end
$var reg 32 r data2 [31:0] $end
$upscope $end


$scope module IM_Gen $end
$var wire 32 s inst [31:0] $end
$var wire 3 t ImmSel [2:0] $end
$var reg 32 u imm [31:0] $end
$upscope $end


$scope module CU $end
$var wire 1 v temp $end
$var reg 32 w Inst [31:0] $end
$var reg 1 x BrEq $end
$var reg 1 y BrLt $end
$var reg 1 z PC_Sel $end
$var reg 3 { ImmSel [2:0] $end
$var reg 3 | Read_Write_Bytes [2:0] $end
$var reg 1 } RegWEn $end
$var reg 2 ~ Byte_Load_Store [1:0] $end
$var reg 1 !! BrUn $end
$var reg 1 "! BSel $end
$var reg 1 #! ASel $end
$var reg 4 $! ALUSel [3:0] $end
$var reg 1 %! MemWR $end
$var reg 2 &! WBSel [1:0] $end
$upscope $end


$scope module reg_Decode $end
$var wire 1 # clk $end
$var wire 1 $ rst $end
$var wire 1 _ flush $end
$var wire 177 '! inp [176:0] $end
$var reg 177 (! out [176:0] $end
$var parameter 32 )! Width [31:0] $end
$upscope $end


$scope module M1 $end
$var reg 32 *! inp0 [31:0] $end
$var reg 32 +! inp1 [31:0] $end
$var reg 1 ,! sel $end
$var reg 32 -! out [31:0] $end
$upscope $end


$scope module M2 $end
$var reg 32 .! inp0 [31:0] $end
$var reg 32 /! inp1 [31:0] $end
$var reg 1 0! sel $end
$var reg 32 1! out [31:0] $end
$upscope $end


$scope module BS $end
$var reg 7 2! OP_Code_ID_EX [6:0] $end
$var reg 3 3! func3_ID_EX [2:0] $end
$var reg 1 4! BrEq $end
$var reg 1 5! BrLt $end
$var reg 1 6! ASel $end
$var reg 1 7! BSel $end
$var reg 1 8! PCSel $end
$var reg 4 9! ALUSel [3:0] $end
$var reg 1 :! Asel_Branch $end
$var reg 1 ;! Bsel_Branch $end
$var reg 1 <! PC_Sel_Branch $end
$var reg 4 =! ALUSel_Branch [3:0] $end
$upscope $end


$scope module Fwd_Mux_A $end
$var reg 32 >! inp0 [31:0] $end
$var reg 32 ?! inp1 [31:0] $end
$var reg 32 @! inp2 [31:0] $end
$var reg 2 A! sel [1:0] $end
$var reg 32 B! out [31:0] $end
$upscope $end


$scope module Fwd_Mux_B $end
$var reg 32 C! inp0 [31:0] $end
$var reg 32 D! inp1 [31:0] $end
$var reg 32 E! inp2 [31:0] $end
$var reg 2 F! sel [1:0] $end
$var reg 32 G! out [31:0] $end
$upscope $end


$scope module ALU $end
$var wire 4 H! ALUSel [3:0] $end
$var wire 32 I! inp1 [31:0] $end
$var wire 1 J! inp2 [31] $end
$var wire 1 K! inp2 [30] $end
$var wire 1 L! inp2 [29] $end
$var wire 1 M! inp2 [28] $end
$var wire 1 N! inp2 [27] $end
$var wire 1 O! inp2 [26] $end
$var wire 1 P! inp2 [25] $end
$var wire 1 Q! inp2 [24] $end
$var wire 1 R! inp2 [23] $end
$var wire 1 S! inp2 [22] $end
$var wire 1 T! inp2 [21] $end
$var wire 1 U! inp2 [20] $end
$var wire 1 V! inp2 [19] $end
$var wire 1 W! inp2 [18] $end
$var wire 1 X! inp2 [17] $end
$var wire 1 Y! inp2 [16] $end
$var wire 1 Z! inp2 [15] $end
$var wire 1 [! inp2 [14] $end
$var wire 1 \! inp2 [13] $end
$var wire 1 ]! inp2 [12] $end
$var wire 1 ^! inp2 [11] $end
$var wire 1 _! inp2 [10] $end
$var wire 1 `! inp2 [9] $end
$var wire 1 a! inp2 [8] $end
$var wire 1 b! inp2 [7] $end
$var wire 1 c! inp2 [6] $end
$var wire 1 d! inp2 [5] $end
$var wire 1 e! inp2 [4] $end
$var wire 1 f! inp2 [3] $end
$var wire 1 g! inp2 [2] $end
$var wire 1 h! inp2 [1] $end
$var wire 1 i! inp2 [0] $end
$var reg 32 j! out [31:0] $end
$var reg 32 k! BS_Out [31:0] $end
$var reg 32 l! temp [31:0] $end

$scope module BS $end
$var wire 32 I! inp1 [31:0] $end
$var wire 1 e! inp2 [4] $end
$var wire 1 f! inp2 [3] $end
$var wire 1 g! inp2 [2] $end
$var wire 1 h! inp2 [1] $end
$var wire 1 i! inp2 [0] $end
$var wire 4 H! ALUSel [3:0] $end
$var reg 32 m! out [31:0] $end
$upscope $end

$upscope $end


$scope module reg_Execute $end
$var wire 1 # clk $end
$var wire 1 $ rst $end
$var wire 130 n! inp [129:0] $end
$var reg 130 o! out [129:0] $end
$var parameter 32 p! Width [31:0] $end
$upscope $end


$scope module Forward_Logic $end
$var reg 5 q! RS2_EX_MEM [4:0] $end
$var reg 7 r! OP_Code_ID_EX [6:0] $end
$var reg 7 s! OP_Code_EX_Mem [6:0] $end
$var reg 5 t! EX_MEM_Rd [4:0] $end
$var reg 5 u! MEM__WB_Rd [4:0] $end
$var reg 5 v! Rs1 [4:0] $end
$var reg 5 w! Rs2 [4:0] $end
$var reg 1 x! Ex_MEM_Reg_E $end
$var reg 1 y! MEM_WB_Reg_E $end
$var reg 2 z! fwd_A [1:0] $end
$var reg 2 {! fwd_B [1:0] $end
$var reg 1 |! fwd_DMem $end
$upscope $end


$scope module Mux_to_DMem $end
$var reg 32 }! inp0 [31:0] $end
$var reg 32 ~! inp1 [31:0] $end
$var reg 1 !" sel $end
$var reg 32 "" out [31:0] $end
$upscope $end


$scope module Data_Mem $end
$var wire 32 #" addr [31:0] $end
$var wire 32 $" dataW [31:0] $end
$var wire 1 %" MemRW $end
$var wire 1 # clk $end
$var wire 1 $ rst $end
$var wire 3 &" Read_Write_Bytes [2:0] $end
$var wire 2 '" Byte_Load_Store [1:0] $end
$var reg 32 (" dataR [31:0] $end
$upscope $end


$scope module Mem_reg $end
$var wire 1 # clk $end
$var wire 1 $ rst $end
$var wire 110 )" inp [109:0] $end
$var reg 110 *" out [109:0] $end
$var parameter 32 +" Width [31:0] $end
$upscope $end


$scope module M3 $end
$var reg 32 ," inp0 [31:0] $end
$var reg 32 -" inp1 [31:0] $end
$var reg 32 ." inp2 [31:0] $end
$var reg 2 /" sel [1:0] $end
$var reg 32 0" out [31:0] $end
$upscope $end

$upscope $end

$upscope $end

$enddefinitions $end
$dumpvars
0!
1"
0#
1$
b0 %
bx &
bx '
bx (
bx )
bx *
bx +
bx ,
bx -
b0 .
b0 /
b0 0
bx 1
bx 2
x3
x4
05
16
17
08
x9
x:
x;
x<
bx =
bx >
b0 ?
b0 @
bx A
bx00000000000000000000000000000000 B
bx C
bx00000000000000000000000000000000xxxxxxxxxxxxxxxxxxxxxxxxxxxxxxxx D
bx E
bx00000000000000000000000000000000xxxxxxxxxxxxxxxxxxxxxxxxxxxxxxxx00000000000000000000000000000000 F
bx G
bx H
bx I
bx J
bx K
bx L
bx M
xN
xO
xP
xQ
xR
xS
bx T
1U
bx V
bx W
bx X
bx Y
bx Z
b0 [
x\
bx ]
0^
x_
bx `
bx a
b1000000 b
0c
bx d
bx e
bx f
bx g
bx h
0i
1j
1k
xl
bx m
bx n
bx o
bx p
bx q
bx r
bx s
bx t
b0 u
zv
bx w
xx
xy
xz
bx {
bx |
x}
bx ~
x!!
x"!
x#!
bx $!
x%!
bx &!
bx00000000000000000000000000000000 '!
bx (!
b10110001 )!
bx *!
bx +!
x,!
bx -!
bx .!
bx /!
x0!
bx 1!
bx 2!
bx 3!
x4!
x5!
x6!
x7!
x8!
bx 9!
x:!
x;!
x<!
bx =!
bx >!
bx ?!
bx @!
b0 A!
bx B!
bx C!
bx D!
bx E!
b0 F!
bx G!
bx H!
bx I!
xJ!
xK!
xL!
xM!
xN!
xO!
xP!
xQ!
xR!
xS!
xT!
xU!
xV!
xW!
xX!
xY!
xZ!
x[!
x\!
x]!
x^!
x_!
x`!
xa!
xb!
xc!
xd!
xe!
xf!
xg!
xh!
xi!
b0 j!
bx k!
bx l!
bx m!
bx00000000000000000000000000000000xxxxxxxxxxxxxxxxxxxxxxxxxxxxxxxx n!
bx o!
b10000010 p!
bx q!
bx r!
bx s!
bx t!
bx u!
bx v!
bx w!
xx!
xy!
b0 z!
b0 {!
0|!
bx }!
bx ~!
0!"
bx ""
bx #"
bx $"
x%"
bx &"
bx '"
b0 ("
bx00000000000000000000000000000000xxxxxxxxxxxxxxxxxxxxxxxxxxxxxxxx00000000000000000000000000000000 )"
bx *"
b1101110 +"
bx ,"
bx -"
bx ."
bx /"
bx 0"
$end
#5000
1!
1#
1c
b0 V
b0 a
b0 (!
b0 o!
b0 *"
b0 '
b0 A
b0 C
b0 E
b0 G
b0xxxxxxxxxxxxxxxxxxx0000000000000000000000000000000000000xxxxxxxxxxxxxxxxxxxxxxxxxxxxxxxxxxxxxxxxxxxxxxxxxxxxxxxxxxxxxxxx00000000000000000000000000000000 B
b0 d
b0 g
b0 h
b0 w
b0xxxxxxxxxxxxxxxxxxxxxxxxxxxxxxxx0000000000000000000000000000000000000000000000000000000000000000 D
b0 w!
b0 e
b0 2!
b0 r!
b0 f
b0 +!
b0 *!
b0 .!
b0 /!
b0 3!
06!
07!
08!
b0 9!
b0 v!
b0 F
b0 t!
0x!
b0 @!
b0 E!
b0 q!
b0 s!
b0 }!
0y!
b0 u!
b0 ,"
b0 -"
b0 ."
b0 /"
b0 )"
b0xxxxxxxxxxxxxxxxxxxxxxxxxxxxxxxx0000000000000000000000000000000000000000000000000000000000000000 n!
b0xxxxxxxxxxxxxxxxxxx0000000000000000000000000000000000000xxxxxxxxxxxxxxxxxxxxxxxxxxxxxxxxxxxxxxxxxxxxxxxxxxxxxxxxxxxxxxxx00000000000000000000000000000000 '!
b0 m
0l
b0 '"
b0 &"
b0 #"
0%"
b0 s
b0 o
b0 n
b0 W
b0xxxxxxxxxxxxxxxxxxxxxxxxxxxxxxxx `
b100 Y
b10010011 X
b100 1
b10010011 (
b10010011 `
b100 Z
b0 q
b0 r
b0 $!
0#!
1"!
b1 {
0z
1}
0%!
b0 &!
b0 |
b0 ~
0:!
0;!
b0 =!
0<!
b0 -!
b0 1!
b0 ""
b0 0"
b0x00 ]
b0 *
b0 +
b0 J
0R
1Q
b1 =
0O
1N
0S
b0 L
b0 K
b0 M
0:
0;
b0 >
0<
b0 H
b0 I
b0 2
b0 )
b0x00 &
b0xx0000100x1000000000000000000000000000000000000000000000000000000000000000000000000000000000000000000000000000000000000000000000000000000000000000000000 B
0,!
00!
b0 >!
b0 C!
b0 ?!
b0 D!
b0 ~!
b0xx0000100x1000000000000000000000000000000000000000000000000000000000000000000000000000000000000000000000000000000000000000000000000000000000000000000000 '!
b0x00 T
b0 p
b0 $"
0\
b0 H!
b1 t
b0 B!
b0 G!
b100 ]
bx j!
b0 ,
b0 -
b100 &
bx /
b0xxxxxxxxxxxxxxxxxxxxxxxxxxxxxxxx00000000000000000000000000000000 D
bx %
b0xxxxxxxxxxxxxxxxxxxxxxxxxxxxxxxx00000000000000000000000000000000 n!
bx [
b100 T
0J!
0K!
0L!
0M!
0N!
0O!
0P!
0Q!
0R!
0S!
0T!
0U!
0V!
0W!
0X!
0Y!
0Z!
0[!
0\!
0]!
0^!
0_!
0`!
0a!
0b!
0c!
0d!
0e!
0f!
0g!
0h!
0i!
b0 I!
b0 j!
b0 /
b0 D
b0 %
b0 n!
b0 [
#10000
0!
0#
0c
#15000
1!
1#
1c
#20000
0"
0!
0#
0c
0$
#25000
1!
1#
1c
b100 V
b10010011 a
b0xx0000100x1000000000000000000000000000000000000000000000000000000000000000000000000000000000000000000000000000000000000000000000000000000000000000000000 (!
b100 '
b10010011 A
b0xx0000100x1000000000000000000000000000000000000000000000000000000000000000000000000000000000000000000000000000000000000000000000000000000000000000000000 C
b10011000000000000001xx0000100x1000000000000100000000000000000000000000000000000000000000000000000000000000000000000000000000000000000000000000000000000000000000000000000000 B
b10011 d
b10010011 w
b0xx000010000000000000000000000000000000000000000000000000000000000000000000000000000000000000000000000000000000000 D
17!
b0xx000010000000000000000000000000000000000000000000000000000000000000000000000000000000000000000000000000000000000 n!
b10011000000000000001xx0000100x1000000000000100000000000000000000000000000000000000000000000000000000000000000000000000000000000000000000000000000000000000000000000000000000 '!
b10010011 s
b100 W
b10000000000000000000000000010010011 `
b1000 Y
b10011 X
b1000 1
b10011 (
b10000000000000000000000000000010011 `
b1000 Z
b0 {
b1 &!
1;!
b1000 ]
b0 =
b1 L
1;
b1000 &
b10011000000000000001xx0000100x1000000010000100000000000000000000000000000000000000000000000000000000000000000000000000000000000000000000000000000000000000000000000000000000 B
10!
b10011000000000000001xx0000100x1000000010000100000000000000000000000000000000000000000000000000000000000000000000000000000000000000000000000000000000000000000000000000000000 '!
b1000 T
b0 t
#30000
0!
0#
0c
#35000
1!
1#
1c
b1000 V
b10000000000000000000000000000010011 a
b10011000000000000001xx0000100x1000000010000100000000000000000000000000000000000000000000000000000000000000000000000000000000000000000000000000000000000000000000000000000000 (!
b0xx000010000000000000000000000000000000000000000000000000000000000000000000000000000000000000000000000000000000000 o!
b1000 '
b10000000000000000000000000000010011 A
b10011000000000000001xx0000100x1000000010000100000000000000000000000000000000000000000000000000000000000000000000000000000000000000000000000000000000000000000000000000000000 C
b0xx000010000000000000000000000000000000000000000000000000000000000000000000000000000000000000000000000000000000000 E
b10011000000000000000xx0000100x1000000010000000000000000000000000000000000100000000000000000000000000000000000000000000000000000000000000000000000000000000000000000000000000 B
b10011 w
b1001100001xx000010000100001000000000000000000000000000000000000000000000000000000000000000000000000000000000000000000000000 D
b10011 e
b10011 2!
b10011 r!
b1 f
b100000000000000000000000000000000000000000000000000000000000000000000000000000000000000000000000000000 F
1x!
b100000000000000000000000000000000000000000000000000000000000000000000000000000000000000000000000000000 )"
b1001100001xx000010000100001000000000000000000000000000000000000000000000000000000000000000000000000000000000000000000000000 n!
b10011000000000000000xx0000100x1000000010000000000000000000000000000000000100000000000000000000000000000000000000000000000000000000000000000000000000000000000000000000000000 '!
b10011 s
b1000 W
b100000000000000000000000000000010011 `
b1100 Y
b1100 1
b1100 Z
b1100 ]
b1100 &
b1100 T
#40000
0!
0#
0c
#45000
1!
1#
1c
b1100 V
b100000000000000000000000000000010011 a
b10011000000000000000xx0000100x1000000010000000000000000000000000000000000100000000000000000000000000000000000000000000000000000000000000000000000000000000000000000000000000 (!
b1001100001xx000010000100001000000000000000000000000000000000000000000000000000000000000000000000000000000000000000000000000 o!
b100000000000000000000000000000000000000000000000000000000000000000000000000000000000000000000000000000 *"
b1100 '
b100000000000000000000000000000010011 A
b10011000000000000000xx0000100x1000000010000000000000000000000000000000000100000000000000000000000000000000000000000000000000000000000000000000000000000000000000000000000000 C
b1001100001xx000010000100001000000000000000000000000000000000000000000000000000000000000000000000000000000000000000000000000 E
b100000000000000000000000000000000000000000000000000000000000000000000000000000000000000000000000000000 G
b10011000000000000000xx0000100x1000000010000000000000000000000000000000001000000000000000000000000000000000000000000000000000000000000000000000000000000000000000000000000000 B
b1001100000xx000010000100000000000000000000000000000000000000000000000000000000000000000000000000000000000000000000000000100 D
b0 f
b100 +!
b101100001000000000000000000000000000000000000000000000000000000000000000000000000000000000000000000000000 F
b1 t!
b10011 s!
1y!
b101100001000000000000000000000000000000000000000000000000000000000000000000000000000000000000000000000000 )"
b1001100000xx000010000100000000000000000000000000000000000000000000000000000000000000000000000000000000000000000000000000100 n!
b10011000000000000000xx0000100x1000000010000000000000000000000000000000001000000000000000000000000000000000000000000000000000000000000000000000000000000000000000000000000000 '!
1l
b1100 W
b110000000000000000000000000000010011 `
b10000 Y
b10000 1
b10000 Z
b10000 ]
b10000 &
b10000 T
#50000
0!
0#
0c
#55000
1!
1#
1c
b10000 V
b110000000000000000000000000000010011 a
b10011000000000000000xx0000100x1000000010000000000000000000000000000000001000000000000000000000000000000000000000000000000000000000000000000000000000000000000000000000000000 (!
b1001100000xx000010000100000000000000000000000000000000000000000000000000000000000000000000000000000000000000000000000000100 o!
b101100001000000000000000000000000000000000000000000000000000000000000000000000000000000000000000000000000 *"
b10000 '
b110000000000000000000000000000010011 A
b10011000000000000000xx0000100x1000000010000000000000000000000000000000001000000000000000000000000000000000000000000000000000000000000000000000000000000000000000000000000000 C
b1001100000xx000010000100000000000000000000000000000000000000000000000000000000000000000000000000000000000000000000000000100 E
b101100001000000000000000000000000000000000000000000000000000000000000000000000000000000000000000000000000 G
b10011000000000000000xx0000100x1000000010000000000000000000000000000000001100000000000000000000000000000000000000000000000000000000000000000000000000000000000000000000000000 B
b1001100000xx000010000100000000000000000000000000000000000000000000000000000000000000000000000000000000000000000000000001000 D
b1000 +!
b1100000000000000000000000000000000000000000000000000000000000000000000000000000000000000000000000000000 F
b0 t!
b1 u!
b1 /"
b1100000000000000000000000000000000000000000000000000000000000000000000000000000000000000000000000000000 )"
b1001100000xx000010000100000000000000000000000000000000000000000000000000000000000000000000000000000000000000000000000001000 n!
b10011000000000000000xx0000100x1000000010000000000000000000000000000000001100000000000000000000000000000000000000000000000000000000000000000000000000000000000000000000000000 '!
b1 m
b10000 W
b1000000000000000000000000000000010011 `
b10100 Y
b10100 1
b10100 Z
b10100 ]
b10100 &
b10100 T
#60000
0!
0#
0c
#65000
1!
1#
1c
b10100 V
b1000000000000000000000000000000010011 a
b10011000000000000000xx0000100x1000000010000000000000000000000000000000001100000000000000000000000000000000000000000000000000000000000000000000000000000000000000000000000000 (!
b1001100000xx000010000100000000000000000000000000000000000000000000000000000000000000000000000000000000000000000000000001000 o!
b1100000000000000000000000000000000000000000000000000000000000000000000000000000000000000000000000000000 *"
b10100 '
b1000000000000000000000000000000010011 A
b10011000000000000000xx0000100x1000000010000000000000000000000000000000001100000000000000000000000000000000000000000000000000000000000000000000000000000000000000000000000000 C
b1001100000xx000010000100000000000000000000000000000000000000000000000000000000000000000000000000000000000000000000000001000 E
b1100000000000000000000000000000000000000000000000000000000000000000000000000000000000000000000000000000 G
b10011000000000000000xx0000100x1000000010000000000000000000000000000000010000000000000000000000000000000000000000000000000000000000000000000000000000000000000000000000000000 B
b1001100000xx000010000100000000000000000000000000000000000000000000000000000000000000000000000000000000000000000000000001100 D
b1100 +!
b0 u!
b1001100000xx000010000100000000000000000000000000000000000000000000000000000000000000000000000000000000000000000000000001100 n!
b10011000000000000000xx0000100x1000000010000000000000000000000000000000010000000000000000000000000000000000000000000000000000000000000000000000000000000000000000000000000000 '!
b0 m
b10100 W
b1010000000000000000000000000000010011 `
b11000 Y
b100000000000100010011 X
b11000 1
b100000000000100010011 (
b1010000000000000100000000000100010011 `
b11000 Z
b11000 ]
b11000 &
b11000 T
#70000
0!
0#
0c
#75000
1!
1#
1c
b11000 V
b1010000000000000100000000000100010011 a
b10011000000000000000xx0000100x1000000010000000000000000000000000000000010000000000000000000000000000000000000000000000000000000000000000000000000000000000000000000000000000 (!
b1001100000xx000010000100000000000000000000000000000000000000000000000000000000000000000000000000000000000000000000000001100 o!
b11000 '
b1010000000000000100000000000100010011 A
b10011000000000000000xx0000100x1000000010000000000000000000000000000000010000000000000000000000000000000000000000000000000000000000000000000000000000000000000000000000000000 C
b1001100000xx000010000100000000000000000000000000000000000000000000000000000000000000000000000000000000000000000000000001100 E
b10011000010000000010xx0000100x1000000010001000000000000000000000000000010100000000000000000000000000000000000000000000000000000000000000000000000000000000000000000000000000 B
b1 h
b100000000000100010011 w
b1001100000xx000010000100000000000000000000000000000000000000000000000000000000000000000000000000000000000000000000000010000 D
b10000 +!
b1001100000xx000010000100000000000000000000000000000000000000000000000000000000000000000000000000000000000000000000000010000 n!
b10011000010000000010xx0000100x1000000010001000000000000000000000000000010100000000000000000000000000000000000000000000000000000000000000000000000000000000000000000000000000 '!
b100000000000100010011 s
b1 o
b11000 W
b1100000000000000100000000000100010011 `
b11100 Y
b10011 X
b11100 1
b10011 (
b1100000000000000000000000000000010011 `
b11100 Z
b1 u
b11100 ]
b1 .
b11100 &
b10011000010000000010xx0000100x1000000010001000000000000000000000000000010100000000000000000000000000000000000000000000000000000000000000000000000000000000000000000000000001 B
b10011000010000000010xx0000100x1000000010001000000000000000000000000000010100000000000000000000000000000000000000000000000000000000000000000000000000000000000000000000000001 '!
b11100 T
#80000
0!
0#
0c
#85000
1!
1#
1c
b11100 V
b1100000000000000000000000000000010011 a
b10011000010000000010xx0000100x1000000010001000000000000000000000000000010100000000000000000000000000000000000000000000000000000000000000000000000000000000000000000000000001 (!
b1001100000xx000010000100000000000000000000000000000000000000000000000000000000000000000000000000000000000000000000000010000 o!
b11100 '
b1100000000000000000000000000000010011 A
b10011000010000000010xx0000100x1000000010001000000000000000000000000000010100000000000000000000000000000000000000000000000000000000000000000000000000000000000000000000000001 C
b1001100000xx000010000100000000000000000000000000000000000000000000000000000000000000000000000000000000000000000000000010000 E
b10011000000000000000xx0000100x1000000010000000000000000000000000000000011000000000000000000000000000000000000000000000000000000000000000000000000000000000000000000000000001 B
b0 h
b10011 w
b1001001100010xx000010000100010000000000000000000000000000000000000000000000000000000000000000000000000000000000000000000010100 D
b1 w!
b10 f
b10100 +!
b1 /!
b1001001100010xx000010000100010000000000000000000000000000000000000000000000000000000000000000000000000000000000000000000010100 n!
b10011000000000000000xx0000100x1000000010000000000000000000000000000000011000000000000000000000000000000000000000000000000000000000000000000000000000000000000000000000000001 '!
b10011 s
b0 o
b11100 W
b1110000000000000000000000000000010011 `
b100000 Y
b100000 1
b100000 Z
b1 1!
b0 u
b100000 ]
b1 I
b0 .
b100000 &
b1 C!
b10011000000000000000xx0000100x1000000010000000000000000000000000000000011000000000000000000000000000000000000000000000000000000000000000000000000000000000000000000000000000 B
b10011000000000000000xx0000100x1000000010000000000000000000000000000000011000000000000000000000000000000000000000000000000000000000000000000000000000000000000000000000000000 '!
b100000 T
b1 G!
b1 -
b1001001100010xx000010000100010000000000000000000000000000000010000000000000000000000000000000000000000000000000000000000010100 D
b1001001100010xx000010000100010000000000000000000000000000000010000000000000000000000000000000000000000000000000000000000010100 n!
1i!
b1 j!
b1 /
b1001001100010xx000010000100010000000000000000000000000000000010000000000000000000000000000000100000000000000000000000000010100 D
b1 %
b1001001100010xx000010000100010000000000000000000000000000000010000000000000000000000000000000100000000000000000000000000010100 n!
b1 [
#90000
0!
0#
0c
#95000
1!
1#
1c
b100000 V
b1110000000000000000000000000000010011 a
b10011000000000000000xx0000100x1000000010000000000000000000000000000000011000000000000000000000000000000000000000000000000000000000000000000000000000000000000000000000000000 (!
b1001001100010xx000010000100010000000000000000000000000000000010000000000000000000000000000000100000000000000000000000000010100 o!
b100000 '
b1110000000000000000000000000000010011 A
b10011000000000000000xx0000100x1000000010000000000000000000000000000000011000000000000000000000000000000000000000000000000000000000000000000000000000000000000000000000000000 C
b1001001100010xx000010000100010000000000000000000000000000000010000000000000000000000000000000100000000000000000000000000010100 E
b10011000000000000000xx0000100x1000000010000000000000000000000000000000011100000000000000000000000000000000000000000000000000000000000000000000000000000000000000000000000000 B
b1001100000xx000010000100000000000000000000000000000000000010000000000000000000000000000000100000000000000000000000000011000 D
b0 w!
b0 f
b11000 +!
b0 /!
b1001100010000000000000000000000000000000000000000000000000000000000000000100000000000000000000000000000000 F
b10 t!
b1 @!
b1 E!
b1 q!
b1 }!
b1001100010000000000000000000000000000000000000000000000000000000000000000100000000000000000000000000000000 )"
b1001100000xx000010000100000000000000000000000000000000000010000000000000000000000000000000100000000000000000000000000011000 n!
b10011000000000000000xx0000100x1000000010000000000000000000000000000000011100000000000000000000000000000000000000000000000000000000000000000000000000000000000000000000000000 '!
b1 #"
b100000 W
b10000000000000000000000000000000010011 `
b100100 Y
b100100 1
b100100 Z
b0 1!
b1 ""
b100100 ]
b0 I
b1 2
b100100 &
b0 C!
b100100 T
b1 $"
b0 G!
b0 -
b1001100000xx000010000100000000000000000000000000000000000000000000000000000000000000000000100000000000000000000000000011000 D
b1001100000xx000010000100000000000000000000000000000000000000000000000000000000000000000000100000000000000000000000000011000 n!
0i!
b0 j!
b0 /
b1001100000xx000010000100000000000000000000000000000000000000000000000000000000000000000000000000000000000000000000000011000 D
b0 %
b1001100000xx000010000100000000000000000000000000000000000000000000000000000000000000000000000000000000000000000000000011000 n!
b0 [
#100000
0!
0#
0c
#105000
1!
1#
1c
b100100 V
b10000000000000000000000000000000010011 a
b10011000000000000000xx0000100x1000000010000000000000000000000000000000011100000000000000000000000000000000000000000000000000000000000000000000000000000000000000000000000000 (!
b1001100000xx000010000100000000000000000000000000000000000000000000000000000000000000000000000000000000000000000000000011000 o!
b1001100010000000000000000000000000000000000000000000000000000000000000000100000000000000000000000000000000 *"
b100100 '
b10000000000000000000000000000000010011 A
b10011000000000000000xx0000100x1000000010000000000000000000000000000000011100000000000000000000000000000000000000000000000000000000000000000000000000000000000000000000000000 C
b1001100000xx000010000100000000000000000000000000000000000000000000000000000000000000000000000000000000000000000000000011000 E
b1001100010000000000000000000000000000000000000000000000000000000000000000100000000000000000000000000000000 G
b10011000000000000000xx0000100x1000000010000000000000000000000000000000100000000000000000000000000000000000000000000000000000000000000000000000000000000000000000000000000000 B
b1001100000xx000010000100000000000000000000000000000000000000000000000000000000000000000000000000000000000000000000000011100 D
b11100 +!
b1100000000000000000000000000000000000000000000000000000000000000000000000000000000000000000000000000000 F
b0 t!
b0 @!
b0 E!
b0 q!
b0 }!
b10 u!
b1 -"
b1100000000000000000000000000000000000000000000000000000000000000000000000000000000000000000000000000000 )"
b1001100000xx000010000100000000000000000000000000000000000000000000000000000000000000000000000000000000000000000000000011100 n!
b10011000000000000000xx0000100x1000000010000000000000000000000000000000100000000000000000000000000000000000000000000000000000000000000000000000000000000000000000000000000000 '!
b10 m
b0 #"
b100100 W
b10010000000000000000000000000000010011 `
b101000 Y
b101000 1
b101000 Z
b0 ""
b1 0"
b101000 ]
b0 2
b1 )
b101000 &
b1 ?!
b1 D!
b1 ~!
b101000 T
b1 p
b0 $"
#110000
0!
0#
0c
